{
	"agcgw":{
		"backurl":"connect-drru.dbankcloud.cn",
		"url":"connect-drru.hispace.hicloud.com",
		"websocketbackurl":"connect-ws-drru.hispace.dbankcloud.cn",
		"websocketurl":"connect-ws-drru.hispace.dbankcloud.com"
	},
	"agcgw_all":{
		"CN":"connect-drcn.hispace.hicloud.com",
		"CN_back":"connect-drcn.dbankcloud.cn",
		"DE":"connect-dre.hispace.hicloud.com",
		"DE_back":"connect-dre.dbankcloud.cn",
		"RU":"connect-drru.hispace.hicloud.com",
		"RU_back":"connect-drru.dbankcloud.cn",
		"SG":"connect-dra.hispace.hicloud.com",
		"SG_back":"connect-dra.dbankcloud.cn"
	},
	"client":{
		"cp_id":"1340007000014411501",
		"product_id":"736430079244877492",
		"client_id":"600570707490899008",
		"client_secret":"18186098B4E90A844D41A3129C94F5413F37F3EE85806669CA66CEDCF7DE35E4",
		"project_id":"736430079244877492",
		"app_id":"104160827",
		"api_key":"CgB6e3x9VcKzZ/1kLvtEMFVMpEjv9A1hirJjaWZO4tljJyrX3tZS1hADX6JiPJPoOp0c60ZV6hpUMEMb6yvfZ24a",
		"package_name":"ru.multifactor.app"
	},
	"oauth_client":{
		"client_id":"104160827",
		"client_type":1
	},
	"app_info":{
		"app_id":"104160827",
		"package_name":"ru.multifactor.app"
	},
	"service":{
		"analytics":{
			"collector_url":"datacollector-drru.dt.hicloud.com,datacollector-drru.dt.dbankcloud.cn",
			"resource_id":"p1",
			"channel_id":""
		},
		"search":{
			"url":"https://search-drru.cloud.huawei.com"
		},
		"cloudstorage":{
			"storage_url":"https://ops-drru.agcstorage.link"
		},
		"ml":{
			"mlservice_url":"ml-api-drru.ai.dbankcloud.com,ml-api-drru.ai.dbankcloud.cn"
		}
	},
	"region":"RU",
	"configuration_version":"3.0",
	"appInfos":[
		{
			"package_name":"ru.multifactor.app",
			"client":{
				"app_id":"104160827"
			},
			"app_info":{
				"package_name":"ru.multifactor.app",
				"app_id":"104160827"
			},
			"oauth_client":{
				"client_type":1,
				"client_id":"104160827"
			}
		}
	]
}
