{
  "project_info": {
    "project_number": "362569129225",
    "firebase_url": "https://admin-multifactor.firebaseio.com",
    "project_id": "admin-multifactor",
    "storage_bucket": "admin-multifactor.appspot.com"
  },
  "client": [
    {
      "client_info": {
        "mobilesdk_app_id": "1:362569129225:android:6de64183df3c86e44687d8",
        "android_client_info": {
          "package_name": "ru.multifactor.app"
        }
      },
      "oauth_client": [
        {
          "client_id": "362569129225-9u6d9pdf54ghi0c7109ustcidfffuc99.apps.googleusercontent.com",
          "client_type": 3
        }
      ],
      "api_key": [
        {
          "current_key": "AIzaSyBa2GRkc-AI4AcpR4Q09ppJk0DPZtCa1YI"
        }
      ],
      "services": {
        "appinvite_service": {
          "other_platform_oauth_client": [
            {
              "client_id": "362569129225-9u6d9pdf54ghi0c7109ustcidfffuc99.apps.googleusercontent.com",
              "client_type": 3
            }
          ]
        }
      }
    }
  ],
  "configuration_version": "1"
}